input metauml;
input metaumldefaults;
input model;

beginfig(1);
  
  Class.ClassVote("Vote")()();
  
  Class.ClassElectoralSystem("ElectoralSystem")(
    "name"
    )(
    "computeResult(Set<Vote>):ElectionResult"
    );

  Class.ClassElectionType("ElectionType")(
    "name"
    )(
    );

  Class.ClassElectionResult("ElectionResult")()(
    "getWinners():List<Candidate>"
    );

  Class.ClassElectorate("Electorate")("name")(
    );
  
  Class.ClassElection("Election")(
    "name",
    "openNominationTime",
    "startTime",
    "stopTime",
    "state:ElectionState"
    )();
  
  Class.ClassElectionRole("ElectionRole")()();
  
  Class.ClassVoter("Voter")()();

  Class.ClassCandidate("Candidate")()();

  Class.ClassNominee("Nominee")()();

  Class.ClassElectionManager("ElectionManager")()();

  Class.ClassUser("User")("surname","GUID")();

  Class.ClassAlternativeVote("AlternativeVote")()();

  Class.ClassSimplePlurality("SimplePlurality")()();

  leftToRight(100)(ClassUser,ClassElectionRole);

  drawObjects(ClassUser,ClassElectionRole);

  clink(association)(ClassUser,ClassElectionRole);
  item(iAssoc)("electionRoles")(obj.se = ClassElectionRole.w);
  item(iAssoc)("*")(obj.ne = ClassElectionRole.w);
  
  leftToRight(10)(
    ClassElectionManager,ClassNominee,ClassCandidate,ClassVoter);

  Group.Roles(ClassVoter,ClassNominee,ClassCandidate,ClassElectionManager);

  topToBottom(30)(ClassElectionRole,Roles);

  drawObjects(%
    Roles,ClassVoter,ClassNominee,ClassCandidate,ClassElectionManager);

  link(inheritance)(pathStepY(ClassVoter.n,ClassElectionRole.s,15));

  link(inheritance)(pathStepY(ClassNominee.n,ClassElectionRole.s,15));
    
  link(inheritance)(pathStepY(ClassCandidate.n,ClassElectionRole.s,15));

  link(inheritance)(pathStepY(ClassElectionManager.n,ClassElectionRole.s,15));
  
  topToBottom(50)(Roles,ClassElection);
  
  leftToRight(30)(ClassElectorate,ClassElection);

  drawObjects(ClassElectorate,ClassElection);
  
  topToBottom(30)(ClassVoter,ClassVote);
  drawObject(ClassVote);
  
  clink(association)(ClassVoter,ClassVote);
  item(iAssoc)("*")(obj.se = ClassVote.n);
  item(iAssoc)("votes")(obj.sw = ClassVote.n);
  item(iAssoc)("0..1")(obj.ne = ClassVoter.s);

  link(association)(pathStepY(ClassVote.w,ClassCandidate.s+(20,0),0));
  item(iAssoc)("for")(obj.ne = ClassCandidate.s+(20,0));
    
  link(association)(
    pathStepY(ClassElection.n-(25,0),ClassElectionManager.s,25));
  item(iAssoc)("0..*")(obj.se = ClassElection.n-(25,0));

  link(association)(
    ClassNominee.s -- (xpart ClassNominee.s, ypart ClassElection.n));
  item(iAssoc)("*")(obj.nw =  ClassNominee.s);

  link(association)(ClassCandidate.s-(20,0) --
    (xpart ClassCandidate.s - 20, ypart ClassElection.n));
  item(iAssoc)("for")(
    obj.se = (xpart ClassCandidate.s - 20, ypart ClassElection.n));
  item(iAssoc)("*")(
    obj.nw = ClassCandidate.s-(20,0));

  link(aggregation)(pathStepX(ClassUser.s,ClassElectorate.w,0));

  clink(association)(ClassElectorate,ClassElection);
  item(iAssoc)("*")(obj.se = ClassElection.w);
    
  
  link(association)(pathStepY(ClassElection.e,ClassVote.s,0));
  item(iAssoc)("*")(obj.ne = ClassVote.s);
  item(iAssoc)("votes")(obj.nw = ClassVote.s);
  
  topToBottom(30)(ClassElection,ClassElectionType);

  leftToRight(30)(
    ClassElectoralSystem,ClassElectionType,ClassElectionResult);

  drawObjects(
    ClassElectoralSystem,ClassElectionType,ClassElectionResult);
 
  
  clink(association)(ClassElection,ClassElectionType);
  clink(association)(ClassElectionType,ClassElectoralSystem);
  link(association)(
    pathStepY(ClassElection.e-(0,20),ClassElectionResult.n,0));

  item(iAssoc)("0..1")(obj.se = ClassElectionResult.n);
  item(iAssoc)("*")(obj.ne = ClassElection.s);


  leftToRight(10)(ClassAlternativeVote,ClassSimplePlurality);
  Group.ElectoralSystems(ClassAlternativeVote,ClassSimplePlurality);

  topToBottom(30)(ClassElectoralSystem,ElectoralSystems);

  drawObjects(ClassAlternativeVote,ClassSimplePlurality,ElectoralSystems);

  link(inheritance)(
    pathStepY(ClassAlternativeVote.n,ClassElectoralSystem.s,15));
  
  link(inheritance)(
    pathStepY(ClassSimplePlurality.n,ClassElectoralSystem.s,15));
 
  endfig;
  
end